[gd_scene load_steps=4 format=2]

[ext_resource path="res://Bullet_texture.png" type="Texture" id=1]
[ext_resource path="res://PlayerBullet.gd" type="Script" id=2]

[sub_resource type="RectangleShape2D" id=1]
extents = Vector2( 28, 12 )

[node name="PlayerBullet" type="Sprite" groups=["Net"]]
texture = ExtResource( 1 )
script = ExtResource( 2 )

[node name="HitBox" type="Area2D" parent="." groups=["player_damager"]]

[node name="CollisionShape2D" type="CollisionShape2D" parent="HitBox"]
shape = SubResource( 1 )

[node name="DestroyTimer" type="Timer" parent="."]
one_shot = true
autostart = true

[connection signal="timeout" from="DestroyTimer" to="." method="_on_DestroyTimer_timeout"]
