[gd_scene load_steps=4 format=2]

[ext_resource path="res://Characters.png" type="Texture" id=1]
[ext_resource path="res://Player.gd" type="Script" id=2]

[sub_resource type="CapsuleShape2D" id=1]
radius = 40.0
height = 33.0

[node name="Player" type="KinematicBody2D" groups=["Net", "Player"]]
script = ExtResource( 2 )

[node name="Sprite" type="Sprite" parent="."]
scale = Vector2( 0.75, 0.75 )
texture = ExtResource( 1 )
offset = Vector2( 16, -6 )
region_enabled = true
region_rect = Rect2( 512, 1500, 253, 250 )

[node name="CollisionShape2D" type="CollisionShape2D" parent="."]
shape = SubResource( 1 )

[node name="Tween" type="Tween" parent="."]

[node name="NetworkTickRate" type="Timer" parent="."]
wait_time = 0.03
autostart = true

[node name="ReloadTimer" type="Timer" parent="."]
wait_time = 0.15
one_shot = true

[node name="ShootPoint" type="Position2D" parent="."]
position = Vector2( 98, 30 )

[node name="HitTimer" type="Timer" parent="."]
wait_time = 0.1
one_shot = true

[node name="Hitbox" type="Area2D" parent="."]

[node name="CollisionShape2D" type="CollisionShape2D" parent="Hitbox"]
shape = SubResource( 1 )

[node name="HTTPRequest" type="HTTPRequest" parent="."]

[connection signal="timeout" from="NetworkTickRate" to="." method="_on_NetworkTickRate_timeout"]
[connection signal="timeout" from="ReloadTimer" to="." method="_on_ReloadTimer_timeout"]
[connection signal="timeout" from="HitTimer" to="." method="_on_HitTimer_timeout"]
[connection signal="area_entered" from="Hitbox" to="." method="_on_Hitbox_area_entered"]
[connection signal="request_completed" from="HTTPRequest" to="." method="_on_HTTPRequest_request_completed"]
